^C:\USERS\SOLDY\DOCUMENTS\WINDOWSAPPPROJECT\ZLIBCOMPILE\COMPILED\ZLIB.DIR\DEBUG\ADLER32.OBJ|C:\USERS\SOLDY\DOCUMENTS\WINDOWSAPPPROJECT\ZLIBCOMPILE\COMPILED\ZLIB.DIR\DEBUG\COMPRESS.OBJ|C:\USERS\SOLDY\DOCUMENTS\WINDOWSAPPPROJECT\ZLIBCOMPILE\COMPILED\ZLIB.DIR\DEBUG\CRC32.OBJ|C:\USERS\SOLDY\DOCUMENTS\WINDOWSAPPPROJECT\ZLIBCOMPILE\COMPILED\ZLIB.DIR\DEBUG\DEFLATE.OBJ|C:\USERS\SOLDY\DOCUMENTS\WINDOWSAPPPROJECT\ZLIBCOMPILE\COMPILED\ZLIB.DIR\DEBUG\GZCLOSE.OBJ|C:\USERS\SOLDY\DOCUMENTS\WINDOWSAPPPROJECT\ZLIBCOMPILE\COMPILED\ZLIB.DIR\DEBUG\GZLIB.OBJ|C:\USERS\SOLDY\DOCUMENTS\WINDOWSAPPPROJECT\ZLIBCOMPILE\COMPILED\ZLIB.DIR\DEBUG\GZREAD.OBJ|C:\USERS\SOLDY\DOCUMENTS\WINDOWSAPPPROJECT\ZLIBCOMPILE\COMPILED\ZLIB.DIR\DEBUG\GZWRITE.OBJ|C:\USERS\SOLDY\DOCUMENTS\WINDOWSAPPPROJECT\ZLIBCOMPILE\COMPILED\ZLIB.DIR\DEBUG\INFBACK.OBJ|C:\USERS\SOLDY\DOCUMENTS\WINDOWSAPPPROJECT\ZLIBCOMPILE\COMPILED\ZLIB.DIR\DEBUG\INFFAST.OBJ|C:\USERS\SOLDY\DOCUMENTS\WINDOWSAPPPROJECT\ZLIBCOMPILE\COMPILED\ZLIB.DIR\DEBUG\INFLATE.OBJ|C:\USERS\SOLDY\DOCUMENTS\WINDOWSAPPPROJECT\ZLIBCOMPILE\COMPILED\ZLIB.DIR\DEBUG\INFTREES.OBJ|C:\USERS\SOLDY\DOCUMENTS\WINDOWSAPPPROJECT\ZLIBCOMPILE\COMPILED\ZLIB.DIR\DEBUG\TREES.OBJ|C:\USERS\SOLDY\DOCUMENTS\WINDOWSAPPPROJECT\ZLIBCOMPILE\COMPILED\ZLIB.DIR\DEBUG\UNCOMPR.OBJ|C:\USERS\SOLDY\DOCUMENTS\WINDOWSAPPPROJECT\ZLIBCOMPILE\COMPILED\ZLIB.DIR\DEBUG\ZLIB1.RES|C:\USERS\SOLDY\DOCUMENTS\WINDOWSAPPPROJECT\ZLIBCOMPILE\COMPILED\ZLIB.DIR\DEBUG\ZUTIL.OBJ
C:\USERS\SOLDY\DOCUMENTS\WINDOWSAPPPROJECT\ZLIBCOMPILE\COMPILED\ZLIB.DIR\DEBUG\ZLIBD.ILK
C:\USERS\SOLDY\DOCUMENTS\WINDOWSAPPPROJECT\ZLIBCOMPILE\COMPILED\DEBUG\ZLIBD.DLL
C:\USERS\SOLDY\DOCUMENTS\WINDOWSAPPPROJECT\ZLIBCOMPILE\COMPILED\DEBUG\ZLIBD.PDB
