^C:\USERS\SOLDY\DOCUMENTS\WINDOWSAPPPROJECT\PNGLIBCOMPILE\COMPILED\PNG.DIR\DEBUG\PNG.OBJ|C:\USERS\SOLDY\DOCUMENTS\WINDOWSAPPPROJECT\PNGLIBCOMPILE\COMPILED\PNG.DIR\DEBUG\PNGERROR.OBJ|C:\USERS\SOLDY\DOCUMENTS\WINDOWSAPPPROJECT\PNGLIBCOMPILE\COMPILED\PNG.DIR\DEBUG\PNGGET.OBJ|C:\USERS\SOLDY\DOCUMENTS\WINDOWSAPPPROJECT\PNGLIBCOMPILE\COMPILED\PNG.DIR\DEBUG\PNGMEM.OBJ|C:\USERS\SOLDY\DOCUMENTS\WINDOWSAPPPROJECT\PNGLIBCOMPILE\COMPILED\PNG.DIR\DEBUG\PNGPREAD.OBJ|C:\USERS\SOLDY\DOCUMENTS\WINDOWSAPPPROJECT\PNGLIBCOMPILE\COMPILED\PNG.DIR\DEBUG\PNGREAD.OBJ|C:\USERS\SOLDY\DOCUMENTS\WINDOWSAPPPROJECT\PNGLIBCOMPILE\COMPILED\PNG.DIR\DEBUG\PNGRIO.OBJ|C:\USERS\SOLDY\DOCUMENTS\WINDOWSAPPPROJECT\PNGLIBCOMPILE\COMPILED\PNG.DIR\DEBUG\PNGRTRAN.OBJ|C:\USERS\SOLDY\DOCUMENTS\WINDOWSAPPPROJECT\PNGLIBCOMPILE\COMPILED\PNG.DIR\DEBUG\PNGRUTIL.OBJ|C:\USERS\SOLDY\DOCUMENTS\WINDOWSAPPPROJECT\PNGLIBCOMPILE\COMPILED\PNG.DIR\DEBUG\PNGSET.OBJ|C:\USERS\SOLDY\DOCUMENTS\WINDOWSAPPPROJECT\PNGLIBCOMPILE\COMPILED\PNG.DIR\DEBUG\PNGTRANS.OBJ|C:\USERS\SOLDY\DOCUMENTS\WINDOWSAPPPROJECT\PNGLIBCOMPILE\COMPILED\PNG.DIR\DEBUG\PNGWIO.OBJ|C:\USERS\SOLDY\DOCUMENTS\WINDOWSAPPPROJECT\PNGLIBCOMPILE\COMPILED\PNG.DIR\DEBUG\PNGWRITE.OBJ|C:\USERS\SOLDY\DOCUMENTS\WINDOWSAPPPROJECT\PNGLIBCOMPILE\COMPILED\PNG.DIR\DEBUG\PNGWTRAN.OBJ|C:\USERS\SOLDY\DOCUMENTS\WINDOWSAPPPROJECT\PNGLIBCOMPILE\COMPILED\PNG.DIR\DEBUG\PNGWUTIL.OBJ
/OUT:"C:\USERS\SOLDY\DOCUMENTS\WINDOWSAPPPROJECT\PNGLIBCOMPILE\COMPILED\DEBUG\LIBPNG16D.DLL" /INCREMENTAL /ILK:"PNG.DIR\DEBUG\LIBPNG16D.ILK" /NOLOGO C:\USERS\SOLDY\DOCUMENTS\WINDOWSAPPPROJECT\ZLIBCOMPILE\COMPILED\DEBUG\ZLIBD.LIB KERNEL32.LIB USER32.LIB GDI32.LIB WINSPOOL.LIB SHELL32.LIB OLE32.LIB OLEAUT32.LIB UUID.LIB COMDLG32.LIB ADVAPI32.LIB /MANIFEST /MANIFESTUAC:"level='asInvoker' uiAccess='false'" /manifest:embed /DEBUG /PDB:"C:/USERS/SOLDY/DOCUMENTS/WINDOWSAPPPROJECT/PNGLIBCOMPILE/COMPILED/DEBUG/LIBPNG16D.PDB" /SUBSYSTEM:CONSOLE /TLBID:1 /DYNAMICBASE /NXCOMPAT /IMPLIB:"C:/USERS/SOLDY/DOCUMENTS/WINDOWSAPPPROJECT/PNGLIBCOMPILE/COMPILED/DEBUG/LIBPNG16D.LIB" /MACHINE:X64  /machine:x64 /DLL PNG.DIR\DEBUG\PNG.OBJ
PNG.DIR\DEBUG\PNGERROR.OBJ
PNG.DIR\DEBUG\PNGGET.OBJ
PNG.DIR\DEBUG\PNGMEM.OBJ
PNG.DIR\DEBUG\PNGPREAD.OBJ
PNG.DIR\DEBUG\PNGREAD.OBJ
PNG.DIR\DEBUG\PNGRIO.OBJ
PNG.DIR\DEBUG\PNGRTRAN.OBJ
PNG.DIR\DEBUG\PNGRUTIL.OBJ
PNG.DIR\DEBUG\PNGSET.OBJ
PNG.DIR\DEBUG\PNGTRANS.OBJ
PNG.DIR\DEBUG\PNGWIO.OBJ
PNG.DIR\DEBUG\PNGWRITE.OBJ
PNG.DIR\DEBUG\PNGWTRAN.OBJ
PNG.DIR\DEBUG\PNGWUTIL.OBJ
