^C:\USERS\SOLDY\DOCUMENTS\WINDOWSAPPPROJECT\PNGLIBCOMPILE\LPNG1638\CMAKELISTS.TXT
setlocal
"C:\Program Files\CMake\bin\cmake.exe" -SC:/Users/Soldy/Documents/WindowsAppProject/pnglibCompile/lpng1638 -BC:/Users/Soldy/Documents/WindowsAppProject/pnglibCompile/compiled --check-stamp-file C:/Users/Soldy/Documents/WindowsAppProject/pnglibCompile/compiled/CMakeFiles/generate.stamp
if %errorlevel% neq 0 goto :cmEnd
:cmEnd
endlocal & call :cmErrorLevel %errorlevel% & goto :cmDone
:cmErrorLevel
exit /b %1
:cmDone
if %errorlevel% neq 0 goto :VCEnd
