^D:\GITLAB\MINE\DEAR-MRF\X64\RELEASE\APPLICATION.OBJ|D:\GITLAB\MINE\DEAR-MRF\X64\RELEASE\IMGUI.OBJ|D:\GITLAB\MINE\DEAR-MRF\X64\RELEASE\IMGUI_DEMO.OBJ|D:\GITLAB\MINE\DEAR-MRF\X64\RELEASE\IMGUI_DRAW.OBJ|D:\GITLAB\MINE\DEAR-MRF\X64\RELEASE\IMGUI_IMPL_GLFW.OBJ|D:\GITLAB\MINE\DEAR-MRF\X64\RELEASE\IMGUI_IMPL_VULKAN.OBJ|D:\GITLAB\MINE\DEAR-MRF\X64\RELEASE\IMGUI_TABLES.OBJ|D:\GITLAB\MINE\DEAR-MRF\X64\RELEASE\IMGUI_WIDGETS.OBJ|D:\GITLAB\MINE\DEAR-MRF\X64\RELEASE\MAIN.OBJ
/OUT:"D:\GITLAB\MINE\DEAR-MRF\X64\RELEASE\EXAMPLE_GLFW_VULKAN.EXE" /NOLOGO "VULKAN-1.LIB" GLFW3.LIB LIBPNG16.LIB ZLIB.LIB HPDF.LIB KERNEL32.LIB USER32.LIB GDI32.LIB WINSPOOL.LIB COMDLG32.LIB ADVAPI32.LIB SHELL32.LIB OLE32.LIB OLEAUT32.LIB UUID.LIB ODBC32.LIB ODBCCP32.LIB /MANIFEST /MANIFESTUAC:"level='asInvoker' uiAccess='false'" /manifest:embed /DEBUG:FULL /PDB:"D:\GITLAB\MINE\DEAR-MRF\X64\RELEASE\EXAMPLE_GLFW_VULKAN.PDB" /TLBID:1 /DYNAMICBASE /NXCOMPAT /IMPLIB:"D:\GITLAB\MINE\DEAR-MRF\X64\RELEASE\EXAMPLE_GLFW_VULKAN.LIB" /MACHINE:X64 X64\RELEASE\APPLICATION.OBJ
X64\RELEASE\IMGUI_IMPL_GLFW.OBJ
X64\RELEASE\IMGUI_IMPL_VULKAN.OBJ
X64\RELEASE\IMGUI.OBJ
X64\RELEASE\IMGUI_DEMO.OBJ
X64\RELEASE\IMGUI_DRAW.OBJ
X64\RELEASE\IMGUI_TABLES.OBJ
X64\RELEASE\IMGUI_WIDGETS.OBJ
X64\RELEASE\MAIN.OBJ
