^C:\USERS\SOLDY\DOCUMENTS\WINDOWSAPPPROJECT\PNGLIBCOMPILE\LPNG1638\CONTRIB\LIBTESTS\PNGVALID.C
C:\WINDOWS\GLOBALIZATION\SORTING\SORTDEFAULT.NLS
D:\PROGRAM FILES\MICROSOFT VISUAL STUDIO\2022\COMMUNITY\VC\TOOLS\MSVC\14.33.31629\BIN\HOSTX64\X64\1033\CLUI.DLL
C:\WINDOWS\SYSTEM32\TZRES.DLL
D:\WINDOWS KITS\10\INCLUDE\10.0.19041.0\UCRT\SIGNAL.H
D:\WINDOWS KITS\10\INCLUDE\10.0.19041.0\UCRT\CORECRT.H
D:\PROGRAM FILES\MICROSOFT VISUAL STUDIO\2022\COMMUNITY\VC\TOOLS\MSVC\14.33.31629\INCLUDE\VCRUNTIME.H
D:\PROGRAM FILES\MICROSOFT VISUAL STUDIO\2022\COMMUNITY\VC\TOOLS\MSVC\14.33.31629\INCLUDE\SAL.H
D:\PROGRAM FILES\MICROSOFT VISUAL STUDIO\2022\COMMUNITY\VC\TOOLS\MSVC\14.33.31629\INCLUDE\CONCURRENCYSAL.H
D:\PROGRAM FILES\MICROSOFT VISUAL STUDIO\2022\COMMUNITY\VC\TOOLS\MSVC\14.33.31629\INCLUDE\VADEFS.H
D:\WINDOWS KITS\10\INCLUDE\10.0.19041.0\UCRT\STDIO.H
D:\WINDOWS KITS\10\INCLUDE\10.0.19041.0\UCRT\CORECRT_WSTDIO.H
D:\WINDOWS KITS\10\INCLUDE\10.0.19041.0\UCRT\CORECRT_STDIO_CONFIG.H
C:\USERS\SOLDY\DOCUMENTS\WINDOWSAPPPROJECT\PNGLIBCOMPILE\LPNG1638\PNG.H
C:\USERS\SOLDY\DOCUMENTS\WINDOWSAPPPROJECT\PNGLIBCOMPILE\COMPILED\PNGLIBCONF.H
C:\USERS\SOLDY\DOCUMENTS\WINDOWSAPPPROJECT\PNGLIBCOMPILE\LPNG1638\PNGCONF.H
D:\PROGRAM FILES\MICROSOFT VISUAL STUDIO\2022\COMMUNITY\VC\TOOLS\MSVC\14.33.31629\INCLUDE\LIMITS.H
D:\WINDOWS KITS\10\INCLUDE\10.0.19041.0\UCRT\STDDEF.H
D:\PROGRAM FILES\MICROSOFT VISUAL STUDIO\2022\COMMUNITY\VC\TOOLS\MSVC\14.33.31629\INCLUDE\SETJMP.H
D:\WINDOWS KITS\10\INCLUDE\10.0.19041.0\UCRT\TIME.H
D:\WINDOWS KITS\10\INCLUDE\10.0.19041.0\UCRT\CORECRT_WTIME.H
C:\USERS\SOLDY\DOCUMENTS\WINDOWSAPPPROJECT\ZLIBCOMPILE\ZLIB\ZLIB.H
C:\USERS\SOLDY\DOCUMENTS\WINDOWSAPPPROJECT\ZLIBCOMPILE\ZLIB\ZCONF.H
D:\WINDOWS KITS\10\INCLUDE\10.0.19041.0\UCRT\SYS\TYPES.H
D:\PROGRAM FILES\MICROSOFT VISUAL STUDIO\2022\COMMUNITY\VC\TOOLS\MSVC\14.33.31629\INCLUDE\STDARG.H
D:\WINDOWS KITS\10\INCLUDE\10.0.19041.0\UCRT\FLOAT.H
D:\WINDOWS KITS\10\INCLUDE\10.0.19041.0\UCRT\STDLIB.H
D:\WINDOWS KITS\10\INCLUDE\10.0.19041.0\UCRT\CORECRT_MALLOC.H
D:\WINDOWS KITS\10\INCLUDE\10.0.19041.0\UCRT\CORECRT_SEARCH.H
D:\WINDOWS KITS\10\INCLUDE\10.0.19041.0\UCRT\CORECRT_WSTDLIB.H
D:\WINDOWS KITS\10\INCLUDE\10.0.19041.0\UCRT\STRING.H
D:\WINDOWS KITS\10\INCLUDE\10.0.19041.0\UCRT\CORECRT_MEMORY.H
D:\WINDOWS KITS\10\INCLUDE\10.0.19041.0\UCRT\CORECRT_MEMCPY_S.H
D:\WINDOWS KITS\10\INCLUDE\10.0.19041.0\UCRT\ERRNO.H
D:\PROGRAM FILES\MICROSOFT VISUAL STUDIO\2022\COMMUNITY\VC\TOOLS\MSVC\14.33.31629\INCLUDE\VCRUNTIME_STRING.H
D:\WINDOWS KITS\10\INCLUDE\10.0.19041.0\UCRT\CORECRT_WSTRING.H
D:\WINDOWS KITS\10\INCLUDE\10.0.19041.0\UCRT\MATH.H
D:\WINDOWS KITS\10\INCLUDE\10.0.19041.0\UCRT\CORECRT_MATH.H
C:\USERS\SOLDY\DOCUMENTS\WINDOWSAPPPROJECT\PNGLIBCOMPILE\LPNG1638\CONTRIB\VISUPNG\CEXCEPT.H
