﻿  Building Custom Rule C:/Users/Soldy/Documents/WindowsAppProject/libharuCompile/libharu/demo/CMakeLists.txt
  raw_image_demo.c
  grid_sheet.c
C:\Users\Soldy\Documents\WindowsAppProject\libharuCompile\libharu\demo\grid_sheet.c(53,39): warning C4305: 'function': truncation from 'double' to 'HPDF_REAL'
C:\Users\Soldy\Documents\WindowsAppProject\libharuCompile\libharu\demo\grid_sheet.c(65,36): warning C4244: 'function': conversion from 'HPDF_UINT' to 'HPDF_REAL', possible loss of data
C:\Users\Soldy\Documents\WindowsAppProject\libharuCompile\libharu\demo\grid_sheet.c(66,40): warning C4244: 'function': conversion from 'HPDF_UINT' to 'HPDF_REAL', possible loss of data
C:\Users\Soldy\Documents\WindowsAppProject\libharuCompile\libharu\demo\grid_sheet.c(72,40): warning C4244: 'function': conversion from 'HPDF_UINT' to 'HPDF_REAL', possible loss of data
C:\Users\Soldy\Documents\WindowsAppProject\libharuCompile\libharu\demo\grid_sheet.c(73,40): warning C4244: 'function': conversion from 'HPDF_UINT' to 'HPDF_REAL', possible loss of data
C:\Users\Soldy\Documents\WindowsAppProject\libharuCompile\libharu\demo\grid_sheet.c(76,47): warning C4305: 'function': truncation from 'double' to 'HPDF_REAL'
C:\Users\Soldy\Documents\WindowsAppProject\libharuCompile\libharu\demo\grid_sheet.c(93,33): warning C4244: 'function': conversion from 'HPDF_UINT' to 'HPDF_REAL', possible loss of data
C:\Users\Soldy\Documents\WindowsAppProject\libharuCompile\libharu\demo\grid_sheet.c(94,33): warning C4244: 'function': conversion from 'HPDF_UINT' to 'HPDF_REAL', possible loss of data
C:\Users\Soldy\Documents\WindowsAppProject\libharuCompile\libharu\demo\grid_sheet.c(100,37): warning C4244: 'function': conversion from 'HPDF_UINT' to 'HPDF_REAL', possible loss of data
C:\Users\Soldy\Documents\WindowsAppProject\libharuCompile\libharu\demo\grid_sheet.c(101,37): warning C4244: 'function': conversion from 'HPDF_UINT' to 'HPDF_REAL', possible loss of data
C:\Users\Soldy\Documents\WindowsAppProject\libharuCompile\libharu\demo\grid_sheet.c(104,37): warning C4244: 'function': conversion from 'HPDF_UINT' to 'HPDF_REAL', possible loss of data
C:\Users\Soldy\Documents\WindowsAppProject\libharuCompile\libharu\demo\grid_sheet.c(105,37): warning C4244: 'function': conversion from 'HPDF_UINT' to 'HPDF_REAL', possible loss of data
C:\Users\Soldy\Documents\WindowsAppProject\libharuCompile\libharu\demo\grid_sheet.c(108,47): warning C4305: 'function': truncation from 'double' to 'HPDF_REAL'
C:\Users\Soldy\Documents\WindowsAppProject\libharuCompile\libharu\demo\grid_sheet.c(121,47): warning C4244: 'function': conversion from 'HPDF_UINT' to 'HPDF_REAL', possible loss of data
C:\Users\Soldy\Documents\WindowsAppProject\libharuCompile\libharu\demo\grid_sheet.c(142,42): warning C4244: 'function': conversion from 'HPDF_UINT' to 'HPDF_REAL', possible loss of data
C:\Users\Soldy\Documents\WindowsAppProject\libharuCompile\libharu\demo\grid_sheet.c(152,42): warning C4244: 'function': conversion from 'HPDF_UINT' to 'HPDF_REAL', possible loss of data
  Generating Code...
  raw_image_demo.vcxproj -> C:\Users\Soldy\Documents\WindowsAppProject\libharuCompile\libharuCompiled\demo\Debug\raw_image_demo.exe
