^C:\USERS\SOLDY\DOCUMENTS\WINDOWSAPPPROJECT\LIBHARUCOMPILE\LIBHARUCOMPILED\DEMO\CHFONT_DEMO.DIR\RELEASE\CHFONT_DEMO.OBJ|C:\USERS\SOLDY\DOCUMENTS\WINDOWSAPPPROJECT\LIBHARUCOMPILE\LIBHARUCOMPILED\DEMO\CHFONT_DEMO.DIR\RELEASE\GRID_SHEET.OBJ
C:\WINDOWS\SYSTEM32\C_1253.NLS
C:\USERS\SOLDY\DOCUMENTS\WINDOWSAPPPROJECT\LIBHARUCOMPILE\LIBHARUCOMPILED\SRC\RELEASE\HPDF.LIB
C:\USERS\SOLDY\DOCUMENTS\WINDOWSAPPPROJECT\PNGLIBCOMPILE\COMPILED\RELEASE\LIBPNG16.LIB
C:\USERS\SOLDY\DOCUMENTS\WINDOWSAPPPROJECT\ZLIBCOMPILE\COMPILED\RELEASE\ZLIB.LIB
D:\WINDOWS KITS\10\LIB\10.0.19041.0\UM\X64\KERNEL32.LIB
D:\WINDOWS KITS\10\LIB\10.0.19041.0\UM\X64\USER32.LIB
D:\WINDOWS KITS\10\LIB\10.0.19041.0\UM\X64\GDI32.LIB
D:\WINDOWS KITS\10\LIB\10.0.19041.0\UM\X64\WINSPOOL.LIB
D:\WINDOWS KITS\10\LIB\10.0.19041.0\UM\X64\SHELL32.LIB
D:\WINDOWS KITS\10\LIB\10.0.19041.0\UM\X64\OLE32.LIB
D:\WINDOWS KITS\10\LIB\10.0.19041.0\UM\X64\OLEAUT32.LIB
D:\WINDOWS KITS\10\LIB\10.0.19041.0\UM\X64\UUID.LIB
D:\WINDOWS KITS\10\LIB\10.0.19041.0\UM\X64\COMDLG32.LIB
D:\WINDOWS KITS\10\LIB\10.0.19041.0\UM\X64\ADVAPI32.LIB
C:\USERS\SOLDY\DOCUMENTS\WINDOWSAPPPROJECT\LIBHARUCOMPILE\LIBHARUCOMPILED\DEMO\CHFONT_DEMO.DIR\RELEASE\CHFONT_DEMO.OBJ
C:\USERS\SOLDY\DOCUMENTS\WINDOWSAPPPROJECT\LIBHARUCOMPILE\LIBHARUCOMPILED\DEMO\CHFONT_DEMO.DIR\RELEASE\GRID_SHEET.OBJ
C:\WINDOWS\GLOBALIZATION\SORTING\SORTDEFAULT.NLS
D:\PROGRAM FILES\MICROSOFT VISUAL STUDIO\2022\COMMUNITY\VC\TOOLS\MSVC\14.33.31629\LIB\X64\MSVCRT.LIB
D:\PROGRAM FILES\MICROSOFT VISUAL STUDIO\2022\COMMUNITY\VC\TOOLS\MSVC\14.33.31629\LIB\X64\OLDNAMES.LIB
D:\PROGRAM FILES\MICROSOFT VISUAL STUDIO\2022\COMMUNITY\VC\TOOLS\MSVC\14.33.31629\LIB\X64\VCRUNTIME.LIB
D:\WINDOWS KITS\10\LIB\10.0.19041.0\UCRT\X64\UCRT.LIB
D:\PROGRAM FILES\MICROSOFT VISUAL STUDIO\2022\COMMUNITY\VC\TOOLS\MSVC\14.33.31629\BIN\HOSTX64\X64\CVTRES.EXE
C:\WINDOWS\SYSTEM32\TZRES.DLL
