^D:\GITLAB\MINE\DEAR-MRF\X64\DEBUG\APPLICATION.OBJ|D:\GITLAB\MINE\DEAR-MRF\X64\DEBUG\IMGUI.OBJ|D:\GITLAB\MINE\DEAR-MRF\X64\DEBUG\IMGUI_DEMO.OBJ|D:\GITLAB\MINE\DEAR-MRF\X64\DEBUG\IMGUI_DRAW.OBJ|D:\GITLAB\MINE\DEAR-MRF\X64\DEBUG\IMGUI_IMPL_GLFW.OBJ|D:\GITLAB\MINE\DEAR-MRF\X64\DEBUG\IMGUI_IMPL_VULKAN.OBJ|D:\GITLAB\MINE\DEAR-MRF\X64\DEBUG\IMGUI_TABLES.OBJ|D:\GITLAB\MINE\DEAR-MRF\X64\DEBUG\IMGUI_WIDGETS.OBJ|D:\GITLAB\MINE\DEAR-MRF\X64\DEBUG\MAIN.OBJ
C:\WINDOWS\SYSTEM32\C_1253.NLS
C:\VULKANSDK\1.3.231.1\LIB\VULKAN-1.LIB
D:\GITLAB\MINE\DEAR-MRF\IMGUI\EXAMPLES\LIBS\GLFW\LIB-VC2010-64\GLFW3.LIB
D:\GITLAB\MINE\DEAR-MRF\PNGLIB\COMPILED\DEBUG\LIBPNG16D.LIB
D:\GITLAB\MINE\DEAR-MRF\ZLIB1_2_13\COMPILED\DEBUG\ZLIBD.LIB
D:\GITLAB\MINE\DEAR-MRF\LIBHARU_12_10_2022_GITHUB\LIBHARUCOMPILED\SRC\DEBUG\HPDF.LIB
C:\PROGRAM FILES (X86)\WINDOWS KITS\10\LIB\10.0.22000.0\UM\X64\KERNEL32.LIB
C:\PROGRAM FILES (X86)\WINDOWS KITS\10\LIB\10.0.22000.0\UM\X64\USER32.LIB
C:\PROGRAM FILES (X86)\WINDOWS KITS\10\LIB\10.0.22000.0\UM\X64\GDI32.LIB
C:\PROGRAM FILES (X86)\WINDOWS KITS\10\LIB\10.0.22000.0\UM\X64\WINSPOOL.LIB
C:\PROGRAM FILES (X86)\WINDOWS KITS\10\LIB\10.0.22000.0\UM\X64\COMDLG32.LIB
C:\PROGRAM FILES (X86)\WINDOWS KITS\10\LIB\10.0.22000.0\UM\X64\ADVAPI32.LIB
C:\PROGRAM FILES (X86)\WINDOWS KITS\10\LIB\10.0.22000.0\UM\X64\SHELL32.LIB
C:\PROGRAM FILES (X86)\WINDOWS KITS\10\LIB\10.0.22000.0\UM\X64\OLE32.LIB
C:\PROGRAM FILES (X86)\WINDOWS KITS\10\LIB\10.0.22000.0\UM\X64\OLEAUT32.LIB
C:\PROGRAM FILES (X86)\WINDOWS KITS\10\LIB\10.0.22000.0\UM\X64\UUID.LIB
C:\PROGRAM FILES (X86)\WINDOWS KITS\10\LIB\10.0.22000.0\UM\X64\ODBC32.LIB
C:\PROGRAM FILES (X86)\WINDOWS KITS\10\LIB\10.0.22000.0\UM\X64\ODBCCP32.LIB
D:\GITLAB\MINE\DEAR-MRF\X64\DEBUG\APPLICATION.OBJ
D:\GITLAB\MINE\DEAR-MRF\X64\DEBUG\IMGUI_IMPL_GLFW.OBJ
D:\GITLAB\MINE\DEAR-MRF\X64\DEBUG\IMGUI_IMPL_VULKAN.OBJ
D:\GITLAB\MINE\DEAR-MRF\X64\DEBUG\IMGUI.OBJ
D:\GITLAB\MINE\DEAR-MRF\X64\DEBUG\IMGUI_DEMO.OBJ
D:\GITLAB\MINE\DEAR-MRF\X64\DEBUG\IMGUI_DRAW.OBJ
D:\GITLAB\MINE\DEAR-MRF\X64\DEBUG\IMGUI_TABLES.OBJ
D:\GITLAB\MINE\DEAR-MRF\X64\DEBUG\IMGUI_WIDGETS.OBJ
D:\GITLAB\MINE\DEAR-MRF\X64\DEBUG\MAIN.OBJ
C:\WINDOWS\SYSTEM32\TZRES.DLL
C:\WINDOWS\GLOBALIZATION\SORTING\SORTDEFAULT.NLS
C:\PROGRAM FILES\MICROSOFT VISUAL STUDIO\2022\COMMUNITY\VC\TOOLS\MSVC\14.34.31933\LIB\X64\MSVCPRT.LIB
C:\PROGRAM FILES\MICROSOFT VISUAL STUDIO\2022\COMMUNITY\VC\TOOLS\MSVC\14.34.31933\LIB\X64\MSVCRT.LIB
C:\PROGRAM FILES\MICROSOFT VISUAL STUDIO\2022\COMMUNITY\VC\TOOLS\MSVC\14.34.31933\LIB\X64\OLDNAMES.LIB
C:\PROGRAM FILES (X86)\WINDOWS KITS\10\LIB\10.0.22000.0\UM\X64\IMM32.LIB
C:\PROGRAM FILES\MICROSOFT VISUAL STUDIO\2022\COMMUNITY\VC\TOOLS\MSVC\14.34.31933\LIB\X64\LEGACY_STDIO_DEFINITIONS.LIB
C:\PROGRAM FILES\MICROSOFT VISUAL STUDIO\2022\COMMUNITY\VC\TOOLS\MSVC\14.34.31933\LIB\X64\VCRUNTIME.LIB
C:\PROGRAM FILES (X86)\WINDOWS KITS\10\LIB\10.0.22000.0\UCRT\X64\UCRT.LIB
C:\PROGRAM FILES\MICROSOFT VISUAL STUDIO\2022\COMMUNITY\VC\TOOLS\MSVC\14.34.31933\LIB\X64\LEGACY_STDIO_WIDE_SPECIFIERS.LIB
D:\GITLAB\MINE\DEAR-MRF\X64\DEBUG\VC143.PDB
