^C:\USERS\SOLDY\DOCUMENTS\WINDOWSAPPPROJECT\LIBHARUCOMPILE\LIBHARU\DEMO\CMAKELISTS.TXT
setlocal
"C:\Program Files\CMake\bin\cmake.exe" -SC:/Users/Soldy/Documents/WindowsAppProject/libharuCompile/libharu -BC:/Users/Soldy/Documents/WindowsAppProject/libharuCompile/libharuCompiled --check-stamp-file C:/Users/Soldy/Documents/WindowsAppProject/libharuCompile/libharuCompiled/demo/CMakeFiles/generate.stamp
if %errorlevel% neq 0 goto :cmEnd
:cmEnd
endlocal & call :cmErrorLevel %errorlevel% & goto :cmDone
:cmErrorLevel
exit /b %1
:cmDone
if %errorlevel% neq 0 goto :VCEnd
