c:\users\soldy\documents\windowsappproject\libharucompile\libharucompiled\src\hpdf.dir\debug\vc143.pdb
c:\users\soldy\documents\windowsappproject\libharucompile\libharucompiled\src\hpdf.dir\debug\hpdf_font_cid.obj
c:\users\soldy\documents\windowsappproject\libharucompile\libharucompiled\src\hpdf.dir\debug\hpdf_ext_gstate.obj
c:\users\soldy\documents\windowsappproject\libharucompile\libharucompiled\src\hpdf.dir\debug\hpdf_error.obj
c:\users\soldy\documents\windowsappproject\libharucompile\libharucompiled\src\hpdf.dir\debug\hpdf_encryptdict.obj
c:\users\soldy\documents\windowsappproject\libharucompile\libharucompiled\src\hpdf.dir\debug\hpdf_encrypt.obj
c:\users\soldy\documents\windowsappproject\libharucompile\libharucompiled\src\hpdf.dir\debug\hpdf_encoder.obj
c:\users\soldy\documents\windowsappproject\libharucompile\libharucompiled\src\hpdf.dir\debug\hpdf_encoder_kr.obj
c:\users\soldy\documents\windowsappproject\libharucompile\libharucompiled\src\hpdf.dir\debug\hpdf_encoder_jp.obj
c:\users\soldy\documents\windowsappproject\libharucompile\libharucompiled\src\hpdf.dir\debug\hpdf_encoder_cnt.obj
c:\users\soldy\documents\windowsappproject\libharucompile\libharucompiled\src\hpdf.dir\debug\hpdf_encoder_cns.obj
c:\users\soldy\documents\windowsappproject\libharucompile\libharucompiled\src\hpdf.dir\debug\hpdf_doc.obj
c:\users\soldy\documents\windowsappproject\libharucompile\libharucompiled\src\hpdf.dir\debug\hpdf_doc_png.obj
c:\users\soldy\documents\windowsappproject\libharucompile\libharucompiled\src\hpdf.dir\debug\hpdf_direct.obj
c:\users\soldy\documents\windowsappproject\libharucompile\libharucompiled\src\hpdf.dir\debug\hpdf_dict.obj
c:\users\soldy\documents\windowsappproject\libharucompile\libharucompiled\src\hpdf.dir\debug\hpdf_destination.obj
c:\users\soldy\documents\windowsappproject\libharucompile\libharucompiled\src\hpdf.dir\debug\hpdf_catalog.obj
c:\users\soldy\documents\windowsappproject\libharucompile\libharucompiled\src\hpdf.dir\debug\hpdf_boolean.obj
c:\users\soldy\documents\windowsappproject\libharucompile\libharucompiled\src\hpdf.dir\debug\hpdf_binary.obj
c:\users\soldy\documents\windowsappproject\libharucompile\libharucompiled\src\hpdf.dir\debug\hpdf_array.obj
c:\users\soldy\documents\windowsappproject\libharucompile\libharucompiled\src\hpdf.dir\debug\hpdf_annotation.obj
c:\users\soldy\documents\windowsappproject\libharucompile\libharucompiled\src\hpdf.dir\debug\hpdf_name.obj
c:\users\soldy\documents\windowsappproject\libharucompile\libharucompiled\src\hpdf.dir\debug\hpdf_mmgr.obj
c:\users\soldy\documents\windowsappproject\libharucompile\libharucompiled\src\hpdf.dir\debug\hpdf_list.obj
c:\users\soldy\documents\windowsappproject\libharucompile\libharucompiled\src\hpdf.dir\debug\hpdf_info.obj
c:\users\soldy\documents\windowsappproject\libharucompile\libharucompiled\src\hpdf.dir\debug\hpdf_image.obj
c:\users\soldy\documents\windowsappproject\libharucompile\libharucompiled\src\hpdf.dir\debug\hpdf_image_png.obj
c:\users\soldy\documents\windowsappproject\libharucompile\libharucompiled\src\hpdf.dir\debug\hpdf_image_ccitt.obj
c:\users\soldy\documents\windowsappproject\libharucompile\libharucompiled\src\hpdf.dir\debug\hpdf_gstate.obj
c:\users\soldy\documents\windowsappproject\libharucompile\libharucompiled\src\hpdf.dir\debug\hpdf_fontdef.obj
c:\users\soldy\documents\windowsappproject\libharucompile\libharucompiled\src\hpdf.dir\debug\hpdf_fontdef_type1.obj
c:\users\soldy\documents\windowsappproject\libharucompile\libharucompiled\src\hpdf.dir\debug\hpdf_fontdef_tt.obj
c:\users\soldy\documents\windowsappproject\libharucompile\libharucompiled\src\hpdf.dir\debug\hpdf_fontdef_kr.obj
c:\users\soldy\documents\windowsappproject\libharucompile\libharucompiled\src\hpdf.dir\debug\hpdf_fontdef_jp.obj
c:\users\soldy\documents\windowsappproject\libharucompile\libharucompiled\src\hpdf.dir\debug\hpdf_fontdef_cnt.obj
c:\users\soldy\documents\windowsappproject\libharucompile\libharucompiled\src\hpdf.dir\debug\hpdf_fontdef_cns.obj
c:\users\soldy\documents\windowsappproject\libharucompile\libharucompiled\src\hpdf.dir\debug\hpdf_fontdef_cid.obj
c:\users\soldy\documents\windowsappproject\libharucompile\libharucompiled\src\hpdf.dir\debug\hpdf_fontdef_base14.obj
c:\users\soldy\documents\windowsappproject\libharucompile\libharucompiled\src\hpdf.dir\debug\hpdf_font.obj
c:\users\soldy\documents\windowsappproject\libharucompile\libharucompiled\src\hpdf.dir\debug\hpdf_font_type1.obj
c:\users\soldy\documents\windowsappproject\libharucompile\libharucompiled\src\hpdf.dir\debug\hpdf_font_tt.obj
c:\users\soldy\documents\windowsappproject\libharucompile\libharucompiled\src\hpdf.dir\debug\hpdf_encoder_utf.obj
c:\users\soldy\documents\windowsappproject\libharucompile\libharucompiled\src\hpdf.dir\debug\hpdf_exdata.obj
c:\users\soldy\documents\windowsappproject\libharucompile\libharucompiled\src\hpdf.dir\debug\hpdf_3dmeasure.obj
c:\users\soldy\documents\windowsappproject\libharucompile\libharucompiled\src\hpdf.dir\debug\hpdf_pdfa.obj
c:\users\soldy\documents\windowsappproject\libharucompile\libharucompiled\src\hpdf.dir\debug\hpdf_xref.obj
c:\users\soldy\documents\windowsappproject\libharucompile\libharucompiled\src\hpdf.dir\debug\hpdf_utils.obj
c:\users\soldy\documents\windowsappproject\libharucompile\libharucompiled\src\hpdf.dir\debug\hpdf_u3d.obj
c:\users\soldy\documents\windowsappproject\libharucompile\libharucompiled\src\hpdf.dir\debug\hpdf_string.obj
c:\users\soldy\documents\windowsappproject\libharucompile\libharucompiled\src\hpdf.dir\debug\hpdf_streams.obj
c:\users\soldy\documents\windowsappproject\libharucompile\libharucompiled\src\hpdf.dir\debug\hpdf_shading.obj
c:\users\soldy\documents\windowsappproject\libharucompile\libharucompiled\src\hpdf.dir\debug\hpdf_real.obj
c:\users\soldy\documents\windowsappproject\libharucompile\libharucompiled\src\hpdf.dir\debug\hpdf_pages.obj
c:\users\soldy\documents\windowsappproject\libharucompile\libharucompiled\src\hpdf.dir\debug\hpdf_page_operator.obj
c:\users\soldy\documents\windowsappproject\libharucompile\libharucompiled\src\hpdf.dir\debug\hpdf_page_label.obj
c:\users\soldy\documents\windowsappproject\libharucompile\libharucompiled\src\hpdf.dir\debug\hpdf_outline.obj
c:\users\soldy\documents\windowsappproject\libharucompile\libharucompiled\src\hpdf.dir\debug\hpdf_objects.obj
c:\users\soldy\documents\windowsappproject\libharucompile\libharucompiled\src\hpdf.dir\debug\hpdf_number.obj
c:\users\soldy\documents\windowsappproject\libharucompile\libharucompiled\src\hpdf.dir\debug\hpdf_null.obj
c:\users\soldy\documents\windowsappproject\libharucompile\libharucompiled\src\hpdf.dir\debug\hpdf_namedict.obj
c:\users\soldy\documents\windowsappproject\libharucompile\libharucompiled\src\cmakefiles\generate.stamp
c:\users\soldy\documents\windowsappproject\libharucompile\libharucompiled\src\debug\hpdf.pdb
c:\users\soldy\documents\windowsappproject\libharucompile\libharucompiled\src\hpdf.dir\debug\hpdf.tlog\cl.command.1.tlog
c:\users\soldy\documents\windowsappproject\libharucompile\libharucompiled\src\hpdf.dir\debug\hpdf.tlog\cl.read.1.tlog
c:\users\soldy\documents\windowsappproject\libharucompile\libharucompiled\src\hpdf.dir\debug\hpdf.tlog\cl.write.1.tlog
c:\users\soldy\documents\windowsappproject\libharucompile\libharucompiled\src\hpdf.dir\debug\hpdf.tlog\custombuild.command.1.tlog
c:\users\soldy\documents\windowsappproject\libharucompile\libharucompiled\src\hpdf.dir\debug\hpdf.tlog\custombuild.read.1.tlog
c:\users\soldy\documents\windowsappproject\libharucompile\libharucompiled\src\hpdf.dir\debug\hpdf.tlog\custombuild.write.1.tlog
c:\users\soldy\documents\windowsappproject\libharucompile\libharucompiled\src\hpdf.dir\debug\hpdf.tlog\link-cvtres.read.1.tlog
c:\users\soldy\documents\windowsappproject\libharucompile\libharucompiled\src\hpdf.dir\debug\hpdf.tlog\link-cvtres.write.1.tlog
c:\users\soldy\documents\windowsappproject\libharucompile\libharucompiled\src\hpdf.dir\debug\hpdf.tlog\link-rc.read.1.tlog
c:\users\soldy\documents\windowsappproject\libharucompile\libharucompiled\src\hpdf.dir\debug\hpdf.tlog\link-rc.write.1.tlog
c:\users\soldy\documents\windowsappproject\libharucompile\libharucompiled\src\hpdf.dir\debug\hpdf.tlog\link.command.1.tlog
c:\users\soldy\documents\windowsappproject\libharucompile\libharucompiled\src\hpdf.dir\debug\hpdf.tlog\link.read.1.tlog
c:\users\soldy\documents\windowsappproject\libharucompile\libharucompiled\src\hpdf.dir\debug\hpdf.tlog\link.read.2.tlog
c:\users\soldy\documents\windowsappproject\libharucompile\libharucompiled\src\hpdf.dir\debug\hpdf.tlog\link.write.1.tlog
