^C:\USERS\SOLDY\DOCUMENTS\WINDOWSAPPPROJECT\LIBHARUCOMPILE\LIBHARU\DEMO\JPFONT_DEMO.C
C:\USERS\SOLDY\DOCUMENTS\WINDOWSAPPPROJECT\LIBHARUCOMPILE\LIBHARUCOMPILED\DEMO\JPFONT_DEMO.DIR\DEBUG\VC143.PDB
C:\USERS\SOLDY\DOCUMENTS\WINDOWSAPPPROJECT\LIBHARUCOMPILE\LIBHARUCOMPILED\DEMO\JPFONT_DEMO.DIR\DEBUG\JPFONT_DEMO.OBJ
