^C:\USERS\SOLDY\DOCUMENTS\WINDOWSAPPPROJECT\LIBHARUCOMPILE\LIBHARU\DEMO\GRID_SHEET.C|C:\USERS\SOLDY\DOCUMENTS\WINDOWSAPPPROJECT\LIBHARUCOMPILE\LIBHARU\DEMO\RAW_IMAGE_DEMO.C
C:\USERS\SOLDY\DOCUMENTS\WINDOWSAPPPROJECT\LIBHARUCOMPILE\LIBHARUCOMPILED\DEMO\RAW_IMAGE_DEMO.DIR\RELEASE\GRID_SHEET.OBJ
C:\USERS\SOLDY\DOCUMENTS\WINDOWSAPPPROJECT\LIBHARUCOMPILE\LIBHARUCOMPILED\DEMO\RAW_IMAGE_DEMO.DIR\RELEASE\RAW_IMAGE_DEMO.OBJ
