^C:\USERS\SOLDY\DOCUMENTS\WINDOWSAPPPROJECT\LIBHARUCOMPILE\LIBHARU\DEMO\TEXT_DEMO2.C
/c /IC:\USERS\SOLDY\DOCUMENTS\WINDOWSAPPPROJECT\LIBHARUCOMPILE\LIBHARU\INCLUDE /IC:\USERS\SOLDY\DOCUMENTS\WINDOWSAPPPROJECT\LIBHARUCOMPILE\LIBHARUCOMPILED\INCLUDE /Zi /nologo /W3 /WX- /diagnostics:column /Od /Ob0 /D _MBCS /D WIN32 /D _WINDOWS /D __WIN32__ /D _CRT_SECURE_NO_WARNINGS /D _CRT_SECURE_NO_DEPRECATE /D "CMAKE_INTDIR=\"Debug\"" /Gm- /RTC1 /MDd /GS /fp:precise /Zc:wchar_t /Zc:forScope /Zc:inline /Fo"TEXT_DEMO2.DIR\DEBUG\\" /Fd"TEXT_DEMO2.DIR\DEBUG\VC143.PDB" /external:W3 /Gd /TC C:\USERS\SOLDY\DOCUMENTS\WINDOWSAPPPROJECT\LIBHARUCOMPILE\LIBHARU\DEMO\TEXT_DEMO2.C
^C:\USERS\SOLDY\DOCUMENTS\WINDOWSAPPPROJECT\LIBHARUCOMPILE\LIBHARU\DEMO\GRID_SHEET.C
/c /IC:\USERS\SOLDY\DOCUMENTS\WINDOWSAPPPROJECT\LIBHARUCOMPILE\LIBHARU\INCLUDE /IC:\USERS\SOLDY\DOCUMENTS\WINDOWSAPPPROJECT\LIBHARUCOMPILE\LIBHARUCOMPILED\INCLUDE /Zi /nologo /W3 /WX- /diagnostics:column /Od /Ob0 /D _MBCS /D WIN32 /D _WINDOWS /D __WIN32__ /D _CRT_SECURE_NO_WARNINGS /D _CRT_SECURE_NO_DEPRECATE /D "CMAKE_INTDIR=\"Debug\"" /Gm- /RTC1 /MDd /GS /fp:precise /Zc:wchar_t /Zc:forScope /Zc:inline /Fo"TEXT_DEMO2.DIR\DEBUG\\" /Fd"TEXT_DEMO2.DIR\DEBUG\VC143.PDB" /external:W3 /Gd /TC C:\USERS\SOLDY\DOCUMENTS\WINDOWSAPPPROJECT\LIBHARUCOMPILE\LIBHARU\DEMO\GRID_SHEET.C
