^C:\USERS\SOLDY\DOCUMENTS\WINDOWSAPPPROJECT\LIBHARUCOMPILE\LIBHARUCOMPILED\DEMO\TEXT_DEMO2.DIR\DEBUG\GRID_SHEET.OBJ|C:\USERS\SOLDY\DOCUMENTS\WINDOWSAPPPROJECT\LIBHARUCOMPILE\LIBHARUCOMPILED\DEMO\TEXT_DEMO2.DIR\DEBUG\TEXT_DEMO2.OBJ
/OUT:"C:\USERS\SOLDY\DOCUMENTS\WINDOWSAPPPROJECT\LIBHARUCOMPILE\LIBHARUCOMPILED\DEMO\DEBUG\TEXT_DEMO2.EXE" /INCREMENTAL /ILK:"TEXT_DEMO2.DIR\DEBUG\TEXT_DEMO2.ILK" /NOLOGO ..\SRC\DEBUG\HPDF.LIB C:\USERS\SOLDY\DOCUMENTS\WINDOWSAPPPROJECT\PNGLIBCOMPILE\COMPILED\DEBUG\LIBPNG16D.LIB C:\USERS\SOLDY\DOCUMENTS\WINDOWSAPPPROJECT\ZLIBCOMPILE\COMPILED\DEBUG\ZLIBD.LIB KERNEL32.LIB USER32.LIB GDI32.LIB WINSPOOL.LIB SHELL32.LIB OLE32.LIB OLEAUT32.LIB UUID.LIB COMDLG32.LIB ADVAPI32.LIB /MANIFEST /MANIFESTUAC:"level='asInvoker' uiAccess='false'" /manifest:embed /DEBUG /PDB:"C:/USERS/SOLDY/DOCUMENTS/WINDOWSAPPPROJECT/LIBHARUCOMPILE/LIBHARUCOMPILED/DEMO/DEBUG/TEXT_DEMO2.PDB" /SUBSYSTEM:CONSOLE /TLBID:1 /DYNAMICBASE /NXCOMPAT /IMPLIB:"C:/USERS/SOLDY/DOCUMENTS/WINDOWSAPPPROJECT/LIBHARUCOMPILE/LIBHARUCOMPILED/DEMO/DEBUG/TEXT_DEMO2.LIB" /MACHINE:X64  /machine:x64 TEXT_DEMO2.DIR\DEBUG\TEXT_DEMO2.OBJ
TEXT_DEMO2.DIR\DEBUG\GRID_SHEET.OBJ
