^C:\USERS\SOLDY\DOCUMENTS\WINDOWSAPPPROJECT\LIBHARUCOMPILE\LIBHARU\DEMO\MAKE_RAWIMAGE.C
C:\USERS\SOLDY\DOCUMENTS\WINDOWSAPPPROJECT\LIBHARUCOMPILE\LIBHARUCOMPILED\DEMO\MAKE_RAWIMAGE.DIR\DEBUG\VC143.PDB
C:\USERS\SOLDY\DOCUMENTS\WINDOWSAPPPROJECT\LIBHARUCOMPILE\LIBHARUCOMPILED\DEMO\MAKE_RAWIMAGE.DIR\DEBUG\MAKE_RAWIMAGE.OBJ
